11 10
i i i i i i i i i i
n i i i i i i i i i
n i i i i i i i i i
i i i i i i i i i i
i i i i i i i i i i
n i i i i i i i i i
n i i i i i i i i i
i i i i i i i i i i
i i i i i i i i i i
n i i i i i i i i i
n i i i i i i i i i